{"data": 
	[ 
		{"FirstName":"Anna", "LastName":"Smith"},
		{"FirstName":"George", "LastName":"Bouris"},
		{"FirstName":"John", "LastName":"Doe"}, 
		{"FirstName":"Anna", "LastName":"Smith"},
		{"FirstName":"George", "LastName":"Bouris"},
		{"FirstName":"John", "LastName":"Doe"}, 
		{"FirstName":"Anna", "LastName":"Smith"},
		{"FirstName":"George", "LastName":"Bouris"},
		{"FirstName":"John", "LastName":"Doe"}, 
		{"FirstName":"Anna", "LastName":"Smith"},
		{"FirstName":"George", "LastName":"Bouris"},
		{"FirstName":"John", "LastName":"Doe"}, 
		{"FirstName":"Anna", "LastName":"Smith"},
		{"FirstName":"George", "LastName":"Bouris"},
		{"FirstName":"John", "LastName":"Doe"}, 
		{"FirstName":"Anna", "LastName":"Smith"},
		{"FirstName":"George", "LastName":"Bouris"},
		{"FirstName":"John", "LastName":"Doe"}, 
		{"FirstName":"Anna", "LastName":"Smith"},
		{"FirstName":"George", "LastName":"Bouris"},
		{"FirstName":"John", "LastName":"Doe"}, 
		{"FirstName":"Anna", "LastName":"Smith"},
		{"FirstName":"George", "LastName":"Bouris"},
		{"FirstName":"John", "LastName":"Doe"}, 
		{"FirstName":"Anna", "LastName":"Smith"},
		{"FirstName":"George", "LastName":"Bouris"},
		{"FirstName":"John", "LastName":"Doe"}, 
		{"FirstName":"Anna", "LastName":"Smith"},
		{"FirstName":"George", "LastName":"Bouris"},
		{"FirstName":"John", "LastName":"Doe"}, 
		{"FirstName":"Anna", "LastName":"Smith"},
		{"FirstName":"George", "LastName":"Bouris"},
		{"FirstName":"John", "LastName":"Doe"}, 
		{"FirstName":"Anna", "LastName":"Smith"},
		{"FirstName":"George", "LastName":"Bouris"},
		{"FirstName":"John", "LastName":"Doe"}, 
		{"FirstName":"Anna", "LastName":"Smith"},
		{"FirstName":"George", "LastName":"Bouris"},
		{"FirstName":"John", "LastName":"Doe"}, 
		{"FirstName":"Anna", "LastName":"Smith"},
		{"FirstName":"George", "LastName":"Bouris"},
		{"FirstName":"John", "LastName":"Doe"}, 
		{"FirstName":"Anna", "LastName":"Smith"},
		{"FirstName":"George", "LastName":"Bouris"},
		{"FirstName":"John", "LastName":"Doe"}, 
		{"FirstName":"Anna", "LastName":"Smith"},
		{"FirstName":"George", "LastName":"Bouris"},
		{"FirstName":"John", "LastName":"Doe"}, 
		{"FirstName":"Anna", "LastName":"Smith"},
		{"FirstName":"George", "LastName":"Bouris"},
		{"FirstName":"John", "LastName":"Doe"}, 
		{"FirstName":"Anna", "LastName":"Smith"},
		{"FirstName":"George", "LastName":"Bouris"},
		{"FirstName":"John", "LastName":"Doe"}, 
		{"FirstName":"Anna", "LastName":"Smith"},
		{"FirstName":"George", "LastName":"Bouris"},
		{"FirstName":"John", "LastName":"Doe"}, 
		{"FirstName":"Anna", "LastName":"Smith"},
		{"FirstName":"George", "LastName":"Bouris"},
		{"FirstName":"John", "LastName":"Doe"}, 
		{"FirstName":"Anna", "LastName":"Smith"},
		{"FirstName":"George", "LastName":"Bouris"},
		{"FirstName":"John", "LastName":"Doe"}, 
		{"FirstName":"Anna", "LastName":"Smith"},
		{"FirstName":"George", "LastName":"Bouris"},
		{"FirstName":"John", "LastName":"Doe"}, 
		{"FirstName":"Anna", "LastName":"Smith"},
		{"FirstName":"George", "LastName":"Bouris"},
		{"FirstName":"John", "LastName":"Doe"}, 
		{"FirstName":"Anna", "LastName":"Smith"},
		{"FirstName":"George", "LastName":"Bouris"},
		{"FirstName":"John", "LastName":"Doe"}, 
		{"FirstName":"Anna", "LastName":"Smith"},
		{"FirstName":"George", "LastName":"Bouris"},
		{"FirstName":"John", "LastName":"Doe"}, 
		{"FirstName":"Anna", "LastName":"Smith"},
		{"FirstName":"George", "LastName":"Bouris"},
		{"FirstName":"John", "LastName":"Doe"}, 
		{"FirstName":"Anna", "LastName":"Smith"},
		{"FirstName":"George", "LastName":"Bouris"},
		{"FirstName":"John", "LastName":"Doe"}, 
		{"FirstName":"Anna", "LastName":"Smith"},
		{"FirstName":"George", "LastName":"Bouris"},
		{"FirstName":"John", "LastName":"Doe"}, 
		{"FirstName":"Anna", "LastName":"Smith"},
		{"FirstName":"George", "LastName":"Bouris"},
		{"FirstName":"John", "LastName":"Doe"}, 
		{"FirstName":"Anna", "LastName":"Smith"},
		{"FirstName":"George", "LastName":"Bouris"},
		{"FirstName":"John", "LastName":"Doe"}, 
		{"FirstName":"Anna", "LastName":"Smith"},
		{"FirstName":"George", "LastName":"Bouris"},
		{"FirstName":"John", "LastName":"Doe"}, 
		{"FirstName":"Anna", "LastName":"Smith"},
		{"FirstName":"George", "LastName":"Bouris"},
		{"FirstName":"John", "LastName":"Doe"}, 
		{"FirstName":"Anna", "LastName":"Smith"},
		{"FirstName":"George", "LastName":"Bouris"},
		{"FirstName":"John", "LastName":"Doe"}, 
		{"FirstName":"Anna", "LastName":"Smith"},
		{"FirstName":"George", "LastName":"Bouris"},
		{"FirstName":"John", "LastName":"Doe"}, 
		{"FirstName":"Anna", "LastName":"Smith"},
		{"FirstName":"George", "LastName":"Bouris"},
		{"FirstName":"John", "LastName":"Doe"}, 
		{"FirstName":"Anna", "LastName":"Smith"},
		{"FirstName":"George", "LastName":"Bouris"},
		{"FirstName":"John", "LastName":"Doe"}, 
		{"FirstName":"Anna", "LastName":"Smith"},
		{"FirstName":"George", "LastName":"Bouris"},
		{"FirstName":"John", "LastName":"Doe"}, 
		{"FirstName":"Anna", "LastName":"Smith"},
		{"FirstName":"George", "LastName":"Bouris"},
		{"FirstName":"John", "LastName":"Doe"}, 
		{"FirstName":"Anna", "LastName":"Smith"},
		{"FirstName":"George", "LastName":"Bouris"},
		{"FirstName":"John", "LastName":"Doe"}, 
		{"FirstName":"Anna", "LastName":"Smith"},
		{"FirstName":"George", "LastName":"Bouris"},
		{"FirstName":"John", "LastName":"Doe"}, 
		{"FirstName":"Anna", "LastName":"Smith"},
		{"FirstName":"George", "LastName":"Bouris"},
		{"FirstName":"John", "LastName":"Doe"}, 
		{"FirstName":"Anna", "LastName":"Smith"},
		{"FirstName":"George", "LastName":"Bouris"},
		{"FirstName":"John", "LastName":"Doe"}, 
		{"FirstName":"Anna", "LastName":"Smith"},
		{"FirstName":"George", "LastName":"Bouris"},
		{"FirstName":"John", "LastName":"Doe"}, 
		{"FirstName":"Anna", "LastName":"Smith"},
		{"FirstName":"George", "LastName":"Bouris"},
		{"FirstName":"John", "LastName":"Doe"}, 
		{"FirstName":"Anna", "LastName":"Smith"},
		{"FirstName":"George", "LastName":"Bouris"},
		{"FirstName":"John", "LastName":"Doe"}, 
		{"FirstName":"Anna", "LastName":"Smith"},
		{"FirstName":"George", "LastName":"Bouris"},
		{"FirstName":"John", "LastName":"Doe"}, 
		{"FirstName":"Anna", "LastName":"Smith"},
		{"FirstName":"George", "LastName":"Bouris"},
		{"FirstName":"John", "LastName":"Doe"}, 
		{"FirstName":"Anna", "LastName":"Smith"},
		{"FirstName":"George", "LastName":"Bouris"},
		{"FirstName":"John", "LastName":"Doe"}, 
		{"FirstName":"Anna", "LastName":"Smith"},
		{"FirstName":"George", "LastName":"Bouris"},
		{"FirstName":"John", "LastName":"Doe"}, 
		{"FirstName":"Anna", "LastName":"Smith"},
		{"FirstName":"George", "LastName":"Bouris"},
		{"FirstName":"John", "LastName":"Doe"}, 
		{"FirstName":"Anna", "LastName":"Smith"},
		{"FirstName":"George", "LastName":"Bouris"},
		{"FirstName":"John", "LastName":"Doe"}, 
		{"FirstName":"Anna", "LastName":"Smith"},
		{"FirstName":"George", "LastName":"Bouris"},
		{"FirstName":"John", "LastName":"Doe"}, 
		{"FirstName":"Anna", "LastName":"Smith"},
		{"FirstName":"George", "LastName":"Bouris"},
		{"FirstName":"John", "LastName":"Doe"}, 
		{"FirstName":"Anna", "LastName":"Smith"},
		{"FirstName":"George", "LastName":"Bouris"},
		{"FirstName":"John", "LastName":"Doe"}, 
		{"FirstName":"Anna", "LastName":"Smith"},
		{"FirstName":"George", "LastName":"Bouris"},
		{"FirstName":"John", "LastName":"Doe"}, 
		{"FirstName":"Anna", "LastName":"Smith"},
		{"FirstName":"George", "LastName":"Bouris"},
		{"FirstName":"John", "LastName":"Doe"}, 
		{"FirstName":"Anna", "LastName":"Smith"},
		{"FirstName":"George", "LastName":"Bouris"},
		{"FirstName":"John", "LastName":"Doe"}, 
		{"FirstName":"Anna", "LastName":"Smith"},
		{"FirstName":"George", "LastName":"Bouris"},
		{"FirstName":"John", "LastName":"Doe"}, 
		{"FirstName":"Anna", "LastName":"Smith"},
		{"FirstName":"George", "LastName":"Bouris"},
		{"FirstName":"John", "LastName":"Doe"}, 
		{"FirstName":"Anna", "LastName":"Smith"},
		{"FirstName":"George", "LastName":"Bouris"},
		{"FirstName":"John", "LastName":"Doe"}, 
		{"FirstName":"Anna", "LastName":"Smith"},
		{"FirstName":"George", "LastName":"Bouris"},
		{"FirstName":"John", "LastName":"Doe"}, 
		{"FirstName":"Anna", "LastName":"Smith"},
		{"FirstName":"George", "LastName":"Bouris"},
		{"FirstName":"John", "LastName":"Doe"}, 
		{"FirstName":"Anna", "LastName":"Smith"},
		{"FirstName":"George", "LastName":"Bouris"},
		{"FirstName":"John", "LastName":"Doe"}, 
		{"FirstName":"Anna", "LastName":"Smith"},
		{"FirstName":"George", "LastName":"Bouris"},
		{"FirstName":"John", "LastName":"Doe"}, 
		{"FirstName":"Anna", "LastName":"Smith"},
		{"FirstName":"George", "LastName":"Bouris"},
		{"FirstName":"John", "LastName":"Doe"}, 
		{"FirstName":"Anna", "LastName":"Smith"},
		{"FirstName":"George", "LastName":"Bouris"},
		{"FirstName":"John", "LastName":"Doe"}, 
		{"FirstName":"Anna", "LastName":"Smith"},
		{"FirstName":"George", "LastName":"Bouris"},
		{"FirstName":"John", "LastName":"Doe"}, 
		{"FirstName":"Anna", "LastName":"Smith"},
		{"FirstName":"George", "LastName":"Bouris"},
		{"FirstName":"John", "LastName":"Doe"}, 
		{"FirstName":"Anna", "LastName":"Smith"},
		{"FirstName":"George", "LastName":"Bouris"},
		{"FirstName":"John", "LastName":"Doe"}, 
		{"FirstName":"Anna", "LastName":"Smith"},
		{"FirstName":"George", "LastName":"Bouris"},
		{"FirstName":"John", "LastName":"Doe"}, 
		{"FirstName":"Anna", "LastName":"Smith"},
		{"FirstName":"George", "LastName":"Bouris"},
		{"FirstName":"John", "LastName":"Doe"}, 
		{"FirstName":"Anna", "LastName":"Smith"},
		{"FirstName":"George", "LastName":"Bouris"},
		{"FirstName":"John", "LastName":"Doe"}, 
		{"FirstName":"Anna", "LastName":"Smith"},
		{"FirstName":"George", "LastName":"Bouris"},
		{"FirstName":"John", "LastName":"Doe"}, 
		{"FirstName":"Anna", "LastName":"Smith"},
		{"FirstName":"George", "LastName":"Bouris"},
		{"FirstName":"John", "LastName":"Doe"}, 
		{"FirstName":"Anna", "LastName":"Smith"},
		{"FirstName":"George", "LastName":"Bouris"},{"FirstName":"John", "LastName":"Doe"}, 
		{"FirstName":"Anna", "LastName":"Smith"},
		{"FirstName":"George", "LastName":"Bouris"},
		{"FirstName":"John", "LastName":"Doe"}, 
		{"FirstName":"Anna", "LastName":"Smith"},
		{"FirstName":"George", "LastName":"Bouris"},
		{"FirstName":"John", "LastName":"Doe"}, 
		{"FirstName":"Anna", "LastName":"Smith"},
		{"FirstName":"George", "LastName":"Bouris"},
		{"FirstName":"John", "LastName":"Doe"}, 
		{"FirstName":"Anna", "LastName":"Smith"},
		{"FirstName":"George", "LastName":"Bouris"},
		{"FirstName":"John", "LastName":"Doe"}, 
		{"FirstName":"Anna", "LastName":"Smith"},
		{"FirstName":"George", "LastName":"Bouris"},
		{"FirstName":"John", "LastName":"Doe"}, 
		{"FirstName":"Anna", "LastName":"Smith"},
		{"FirstName":"George", "LastName":"Bouris"},
		{"FirstName":"John", "LastName":"Doe"}, 
		{"FirstName":"Anna", "LastName":"Smith"},
		{"FirstName":"George", "LastName":"Bouris"},
		{"FirstName":"John", "LastName":"Doe"}, 
		{"FirstName":"Anna", "LastName":"Smith"},
		{"FirstName":"George", "LastName":"Bouris"},
		{"FirstName":"John", "LastName":"Doe"}, 
		{"FirstName":"Anna", "LastName":"Smith"},
		{"FirstName":"George", "LastName":"Bouris"},
		{"FirstName":"John", "LastName":"Doe"}, 
		{"FirstName":"Anna", "LastName":"Smith"},
		{"FirstName":"George", "LastName":"Bouris"},
		{"FirstName":"John", "LastName":"Doe"}, 
		{"FirstName":"Anna", "LastName":"Smith"},
		{"FirstName":"George", "LastName":"Bouris"},
		{"FirstName":"John", "LastName":"Doe"}, 
		{"FirstName":"Anna", "LastName":"Smith"},
		{"FirstName":"George", "LastName":"Bouris"},
		{"FirstName":"John", "LastName":"Doe"}, 
		{"FirstName":"Anna", "LastName":"Smith"},
		{"FirstName":"George", "LastName":"Bouris"},
		{"FirstName":"John", "LastName":"Doe"}, 
		{"FirstName":"Anna", "LastName":"Smith"},
		{"FirstName":"George", "LastName":"Bouris"},
		{"FirstName":"John", "LastName":"Doe"}, 
		{"FirstName":"Anna", "LastName":"Smith"},
		{"FirstName":"George", "LastName":"Bouris"},
		{"FirstName":"John", "LastName":"Doe"}, 
		{"FirstName":"Anna", "LastName":"Smith"},
		{"FirstName":"George", "LastName":"Bouris"},
		{"FirstName":"John", "LastName":"Doe"}, 
		{"FirstName":"Anna", "LastName":"Smith"},
		{"FirstName":"George", "LastName":"Bouris"},
		{"FirstName":"John", "LastName":"Doe"}, 
		{"FirstName":"Anna", "LastName":"Smith"},
		{"FirstName":"George", "LastName":"Bouris"},
		{"FirstName":"John", "LastName":"Doe"}, 
		{"FirstName":"Anna", "LastName":"Smith"},
		{"FirstName":"George", "LastName":"Bouris"},
		{"FirstName":"John", "LastName":"Doe"}, 
		{"FirstName":"Anna", "LastName":"Smith"},
		{"FirstName":"George", "LastName":"Bouris"},
		{"FirstName":"John", "LastName":"Doe"}, 
		{"FirstName":"Anna", "LastName":"Smith"},
		{"FirstName":"George", "LastName":"Bouris"},
		{"FirstName":"John", "LastName":"Doe"}, 
		{"FirstName":"Anna", "LastName":"Smith"},
		{"FirstName":"George", "LastName":"Bouris"},
		{"FirstName":"John", "LastName":"Doe"}, 
		{"FirstName":"Anna", "LastName":"Smith"},
		{"FirstName":"George", "LastName":"Bouris"},
		{"FirstName":"John", "LastName":"Doe"}, 
		{"FirstName":"Anna", "LastName":"Smith"},
		{"FirstName":"George", "LastName":"Bouris"},
		{"FirstName":"John", "LastName":"Doe"}, 
		{"FirstName":"Anna", "LastName":"Smith"},
		{"FirstName":"George", "LastName":"Bouris"},
		{"FirstName":"John", "LastName":"Doe"}, 
		{"FirstName":"Anna", "LastName":"Smith"},
		{"FirstName":"George", "LastName":"Bouris"},
		{"FirstName":"John", "LastName":"Doe"}, 
		{"FirstName":"Anna", "LastName":"Smith"},
		{"FirstName":"George", "LastName":"Bouris"},
		{"FirstName":"John", "LastName":"Doe"}, 
		{"FirstName":"Anna", "LastName":"Smith"},
		{"FirstName":"George", "LastName":"Bouris"},
		{"FirstName":"John", "LastName":"Doe"}, 
		{"FirstName":"Anna", "LastName":"Smith"},
		{"FirstName":"George", "LastName":"Bouris"},
		{"FirstName":"John", "LastName":"Doe"}, 
		{"FirstName":"Anna", "LastName":"Smith"},
		{"FirstName":"George", "LastName":"Bouris"},
		{"FirstName":"John", "LastName":"Doe"}, 
		{"FirstName":"Anna", "LastName":"Smith"},
		{"FirstName":"George", "LastName":"Bouris"},
		{"FirstName":"John", "LastName":"Doe"}, 
		{"FirstName":"Anna", "LastName":"Smith"},
		{"FirstName":"George", "LastName":"Bouris"},
		{"FirstName":"John", "LastName":"Doe"}, 
		{"FirstName":"Anna", "LastName":"Smith"},
		{"FirstName":"George", "LastName":"Bouris"},
		{"FirstName":"John", "LastName":"Doe"}, 
		{"FirstName":"Anna", "LastName":"Smith"},
		{"FirstName":"George", "LastName":"Bouris"},
		{"FirstName":"John", "LastName":"Doe"}, 
		{"FirstName":"Anna", "LastName":"Smith"},
		{"FirstName":"George", "LastName":"Bouris"},
		{"FirstName":"John", "LastName":"Doe"}, 
		{"FirstName":"Anna", "LastName":"Smith"},
		{"FirstName":"George", "LastName":"Bouris"},
		{"FirstName":"John", "LastName":"Doe"}, 
		{"FirstName":"Anna", "LastName":"Smith"},
		{"FirstName":"George", "LastName":"Bouris"},
		{"FirstName":"John", "LastName":"Doe"}, 
		{"FirstName":"Anna", "LastName":"Smith"},
		{"FirstName":"George", "LastName":"Bouris"},
		{"FirstName":"John", "LastName":"Doe"}, 
		{"FirstName":"Anna", "LastName":"Smith"},
		{"FirstName":"George", "LastName":"Bouris"},
		{"FirstName":"John", "LastName":"Doe"}, 
		{"FirstName":"Anna", "LastName":"Smith"},
		{"FirstName":"George", "LastName":"Bouris"},
		{"FirstName":"John", "LastName":"Doe"}, 
		{"FirstName":"Anna", "LastName":"Smith"},
		{"FirstName":"George", "LastName":"Bouris"},
		{"FirstName":"John", "LastName":"Doe"}, 
		{"FirstName":"Anna", "LastName":"Smith"},
		{"FirstName":"George", "LastName":"Bouris"},
		{"FirstName":"John", "LastName":"Doe"}, 
		{"FirstName":"Anna", "LastName":"Smith"},
		{"FirstName":"George", "LastName":"Bouris"},
		{"FirstName":"John", "LastName":"Doe"}, 
		{"FirstName":"Anna", "LastName":"Smith"},
		{"FirstName":"George", "LastName":"Bouris"},
		{"FirstName":"John", "LastName":"Doe"}, 
		{"FirstName":"Anna", "LastName":"Smith"},
		{"FirstName":"George", "LastName":"Bouris"},
		{"FirstName":"John", "LastName":"Doe"}, 
		{"FirstName":"Anna", "LastName":"Smith"},
		{"FirstName":"George", "LastName":"Bouris"},
		{"FirstName":"John", "LastName":"Doe"}, 
		{"FirstName":"Anna", "LastName":"Smith"},
		{"FirstName":"George", "LastName":"Bouris"},
		{"FirstName":"John", "LastName":"Doe"}, 
		{"FirstName":"Anna", "LastName":"Smith"},
		{"FirstName":"George", "LastName":"Bouris"},
		{"FirstName":"John", "LastName":"Doe"}, 
		{"FirstName":"Anna", "LastName":"Smith"},
		{"FirstName":"George", "LastName":"Bouris"},
		{"FirstName":"John", "LastName":"Doe"}, 
		{"FirstName":"Anna", "LastName":"Smith"},
		{"FirstName":"George", "LastName":"Bouris"},
		{"FirstName":"John", "LastName":"Doe"}, 
		{"FirstName":"Anna", "LastName":"Smith"},
		{"FirstName":"George", "LastName":"Bouris"},
		{"FirstName":"John", "LastName":"Doe"}, 
		{"FirstName":"Anna", "LastName":"Smith"},
		{"FirstName":"George", "LastName":"Bouris"},
		{"FirstName":"John", "LastName":"Doe"}, 
		{"FirstName":"Anna", "LastName":"Smith"},
		{"FirstName":"George", "LastName":"Bouris"},
		{"FirstName":"John", "LastName":"Doe"}, 
		{"FirstName":"Anna", "LastName":"Smith"},
		{"FirstName":"George", "LastName":"Bouris"},
		{"FirstName":"John", "LastName":"Doe"}, 
		{"FirstName":"Anna", "LastName":"Smith"},
		{"FirstName":"George", "LastName":"Bouris"},
		{"FirstName":"John", "LastName":"Doe"}, 
		{"FirstName":"Anna", "LastName":"Smith"},
		{"FirstName":"George", "LastName":"Bouris"},
		{"FirstName":"John", "LastName":"Doe"}, 
		{"FirstName":"Anna", "LastName":"Smith"},
		{"FirstName":"George", "LastName":"Bouris"},
		{"FirstName":"John", "LastName":"Doe"}, 
		{"FirstName":"Anna", "LastName":"Smith"},
		{"FirstName":"George", "LastName":"Bouris"},
		{"FirstName":"John", "LastName":"Doe"}, 
		{"FirstName":"Anna", "LastName":"Smith"},
		{"FirstName":"George", "LastName":"Bouris"},
		{"FirstName":"John", "LastName":"Doe"}, 
		{"FirstName":"Anna", "LastName":"Smith"},
		{"FirstName":"George", "LastName":"Bouris"},
		{"FirstName":"John", "LastName":"Doe"}, 
		{"FirstName":"Anna", "LastName":"Smith"},
		{"FirstName":"George", "LastName":"Bouris"},
		{"FirstName":"John", "LastName":"Doe"}, 
		{"FirstName":"Anna", "LastName":"Smith"},
		{"FirstName":"George", "LastName":"Bouris"},
		{"FirstName":"John", "LastName":"Doe"}, 
		{"FirstName":"Anna", "LastName":"Smith"},
		{"FirstName":"George", "LastName":"Bouris"},
		{"FirstName":"John", "LastName":"Doe"}, 
		{"FirstName":"Anna", "LastName":"Smith"},
		{"FirstName":"George", "LastName":"Bouris"},
		{"FirstName":"John", "LastName":"Doe"}, 
		{"FirstName":"Anna", "LastName":"Smith"},
		{"FirstName":"George", "LastName":"Bouris"},
		{"FirstName":"John", "LastName":"Doe"}, 
		{"FirstName":"Anna", "LastName":"Smith"},
		{"FirstName":"George", "LastName":"Bouris"},
		{"FirstName":"John", "LastName":"Doe"}, 
		{"FirstName":"Anna", "LastName":"Smith"},
		{"FirstName":"George", "LastName":"Bouris"},
		{"FirstName":"John", "LastName":"Doe"}, 
		{"FirstName":"Anna", "LastName":"Smith"},
		{"FirstName":"George", "LastName":"Bouris"},
		{"FirstName":"John", "LastName":"Doe"}, 
		{"FirstName":"Anna", "LastName":"Smith"},
		{"FirstName":"George", "LastName":"Bouris"},
		{"FirstName":"John", "LastName":"Doe"}, 
		{"FirstName":"Anna", "LastName":"Smith"},
		{"FirstName":"George", "LastName":"Bouris"},
		{"FirstName":"John", "LastName":"Doe"}, 
		{"FirstName":"Anna", "LastName":"Smith"},
		{"FirstName":"George", "LastName":"Bouris"},
		{"FirstName":"John", "LastName":"Doe"}, 
		{"FirstName":"Anna", "LastName":"Smith"},
		{"FirstName":"George", "LastName":"Bouris"},
		{"FirstName":"John", "LastName":"Doe"}, 
		{"FirstName":"Anna", "LastName":"Smith"},
		{"FirstName":"George", "LastName":"Bouris"},
		{"FirstName":"John", "LastName":"Doe"}, 
		{"FirstName":"Anna", "LastName":"Smith"},
		{"FirstName":"George", "LastName":"Bouris"},
		{"FirstName":"John", "LastName":"Doe"}, 
		{"FirstName":"Anna", "LastName":"Smith"},
		{"FirstName":"George", "LastName":"Bouris"},
		{"FirstName":"John", "LastName":"Doe"}, 
		{"FirstName":"Anna", "LastName":"Smith"},
		{"FirstName":"George", "LastName":"Bouris"},
		{"FirstName":"John", "LastName":"Doe"}, 
		{"FirstName":"Anna", "LastName":"Smith"},
		{"FirstName":"George", "LastName":"Bouris"},
		{"FirstName":"John", "LastName":"Doe"}, 
		{"FirstName":"Anna", "LastName":"Smith"},
		{"FirstName":"George", "LastName":"Bouris"},
		{"FirstName":"John", "LastName":"Doe"}, 
		{"FirstName":"Anna", "LastName":"Smith"},
		{"FirstName":"George", "LastName":"Bouris"},
		{"FirstName":"John", "LastName":"Doe"}, 
		{"FirstName":"Anna", "LastName":"Smith"},
		{"FirstName":"George", "LastName":"Bouris"},
		{"FirstName":"John", "LastName":"Doe"}, 
		{"FirstName":"Anna", "LastName":"Smith"},
		{"FirstName":"George", "LastName":"Bouris"},
		{"FirstName":"John", "LastName":"Doe"}, 
		{"FirstName":"Anna", "LastName":"Smith"},
		{"FirstName":"George", "LastName":"Bouris"},
		{"FirstName":"John", "LastName":"Doe"}, 
		{"FirstName":"Anna", "LastName":"Smith"},
		{"FirstName":"George", "LastName":"Bouris"},
		{"FirstName":"John", "LastName":"Doe"}, 
		{"FirstName":"Anna", "LastName":"Smith"},
		{"FirstName":"George", "LastName":"Bouris"},
		{"FirstName":"John", "LastName":"Doe"}, 
		{"FirstName":"Anna", "LastName":"Smith"},
		{"FirstName":"George", "LastName":"Bouris"},
		{"FirstName":"John", "LastName":"Doe"}, 
		{"FirstName":"Anna", "LastName":"Smith"},
		{"FirstName":"George", "LastName":"Bouris"},
		{"FirstName":"John", "LastName":"Doe"}, 
		{"FirstName":"Anna", "LastName":"Smith"},
		{"FirstName":"George", "LastName":"Bouris"},
		{"FirstName":"John", "LastName":"Doe"}, 
		{"FirstName":"Anna", "LastName":"Smith"},
		{"FirstName":"George", "LastName":"Bouris"},
		{"FirstName":"John", "LastName":"Doe"}, 
		{"FirstName":"Anna", "LastName":"Smith"},
		{"FirstName":"George", "LastName":"Bouris"},
		{"FirstName":"John", "LastName":"Doe"}, 
		{"FirstName":"Anna", "LastName":"Smith"},
		{"FirstName":"George", "LastName":"Bouris"},
		{"FirstName":"John", "LastName":"Doe"}, 
		{"FirstName":"Anna", "LastName":"Smith"},
		{"FirstName":"George", "LastName":"Bouris"},
		{"FirstName":"John", "LastName":"Doe"}, 
		{"FirstName":"Anna", "LastName":"Smith"},
		{"FirstName":"George", "LastName":"Bouris"},
		{"FirstName":"John", "LastName":"Doe"}, 
		{"FirstName":"Anna", "LastName":"Smith"},
		{"FirstName":"George", "LastName":"Bouris"},
		{"FirstName":"John", "LastName":"Doe"}, 
		{"FirstName":"Anna", "LastName":"Smith"},
		{"FirstName":"George", "LastName":"Bouris"},
		{"FirstName":"John", "LastName":"Doe"}, 
		{"FirstName":"Anna", "LastName":"Smith"},
		{"FirstName":"George", "LastName":"Bouris"},
		{"FirstName":"John", "LastName":"Doe"}, 
		{"FirstName":"Anna", "LastName":"Smith"},
		{"FirstName":"George", "LastName":"Bouris"},
		{"FirstName":"John", "LastName":"Doe"}, 
		{"FirstName":"Anna", "LastName":"Smith"},
		{"FirstName":"George", "LastName":"Bouris"},
		{"FirstName":"John", "LastName":"Doe"}, 
		{"FirstName":"Anna", "LastName":"Smith"},
		{"FirstName":"George", "LastName":"Bouris"},
		{"FirstName":"John", "LastName":"Doe"}, 
		{"FirstName":"Anna", "LastName":"Smith"},
		{"FirstName":"George", "LastName":"Bouris"},
		{"FirstName":"John", "LastName":"Doe"}, 
		{"FirstName":"Anna", "LastName":"Smith"},
		{"FirstName":"George", "LastName":"Bouris"},
		{"FirstName":"John", "LastName":"Doe"}, 
		{"FirstName":"Anna", "LastName":"Smith"},
		{"FirstName":"George", "LastName":"Bouris"},
		{"FirstName":"John", "LastName":"Doe"}, 
		{"FirstName":"Anna", "LastName":"Smith"},
		{"FirstName":"George", "LastName":"Bouris"},
		{"FirstName":"John", "LastName":"Doe"}, 
		{"FirstName":"Anna", "LastName":"Smith"},
		{"FirstName":"George", "LastName":"Bouris"},
		{"FirstName":"John", "LastName":"Doe"}, 
		{"FirstName":"Anna", "LastName":"Smith"},
		{"FirstName":"George", "LastName":"Bouris"},
		{"FirstName":"John", "LastName":"Doe"}, 
		{"FirstName":"Anna", "LastName":"Smith"},
		{"FirstName":"George", "LastName":"Bouris"},
		{"FirstName":"John", "LastName":"Doe"}, 
		{"FirstName":"Anna", "LastName":"Smith"},
		{"FirstName":"George", "LastName":"Bouris"},
		{"FirstName":"John", "LastName":"Doe"}, 
		{"FirstName":"Anna", "LastName":"Smith"},
		{"FirstName":"George", "LastName":"Bouris"},
		{"FirstName":"John", "LastName":"Doe"}, 
		{"FirstName":"Anna", "LastName":"Smith"},
		{"FirstName":"George", "LastName":"Bouris"},
		{"FirstName":"John", "LastName":"Doe"}, 
		{"FirstName":"Anna", "LastName":"Smith"},
		{"FirstName":"George", "LastName":"Bouris"},
		{"FirstName":"Anna", "LastName":"Smith"}
	]
}